…
    ## `summarise()` regrouping output by 'day_sampled', 'tillage' (override with `.groups` argument)

    ghg_means_normalized 

    ## # A tibble: 30 x 5
    ## # Groups:   day_sampled, tillage [15]
    ##    day_sampled tillage                  AMC   mean_g_co2_rate se_g_co2_rate
    ##          <int> <fct>                    <fct>           <dbl>         <dbl>
    ##  1           1 "Undisturbed\nGrassland" low            0.104        0.0104 
    ##  2           1 "Undisturbed\nGrassland" high           0.0457       0.00390
    ##  3           1 "Tilled\nCropland"       low            0.123        0.0129 
    ##  4           1 "Tilled\nCropland"       high           0.0804       0.00753
    ##  5           1 "Disturbed\nGrassland"   low            0.439        0.0197 
    ##  6           1 "Disturbed\nGrassland"   high           0.180        0.0253 
    ##  7           3 "Undisturbed\nGrassland" low            0.0953       0.00756
    ##  8           3 "Undisturbed\nGrassland" high           0.0579       0.00469
    ##  9           3 "Tilled\nCropland"       low            0.136        0.0161 
    ## 10           3 "Tilled\nCropland"       high           0.0935       0.00969
    ## # … with 20 more rows
…
