…
The variances amongst the tillage x pressure groups are unequal.

### Paired Wilcoxon Rank Sum Test

``` r
do
```

    ## # A tibble: 240 x 36
    ##    sample field incubated_days pressure sodium bromide    df    do adj_do
    ##    <chr>  <chr>          <dbl>    <int>  <dbl>   <dbl> <dbl> <dbl>  <dbl>
    ##  1 3-8-7… 3-8                7      100   12.4  12.8    0.69   229   109.
    ##  2 3-8-7… 3-8                7      300   14.5   7.18   0.39   294   283 
    ##  3 3-8-7… 3-8                7      500   14.1   5.45   0.3    225   200.
    ##  4 3-8-F… 3-8                7      100   25.4   5.62   0.3    251   237.
    ##  5 3-8-F… 3-8                7      300   22.9   1.44   0.08   230   225.
    ##  6 3-8-F… 3-8                7      500   17.7   0.755  0.04   184   180.
    ##  7 4-9-7… 4-9                7      100   15.2  11.9    0.65   234   143.
    ##  8 4-9-7… 4-9                7      300   13.8   6.90   0.37   280   278.
    ##  9 4-9-F… 4-9                7      100   60.0   9.02   0.49   218   156.
    ## 10 4-9-F… 4-9                7      300   41.8   2.08   0.11   239   234.
    ## # … with 230 more rows, and 27 more variables: flush_vol <dbl>,
    ## #   disturbed <lgl>, moisture <chr>, crop_type <chr>, ring_g <dbl>,
    ## #   ring_vol_cm3 <dbl>, filter <dbl>, band <dbl>, soak_boat <dbl>,
    ## #   start_mass_plus_ring_filt_etc <dbl>, start_mass_soil_only <dbl>,
    ## #   dry_boat_g <dbl>, extracted_soil <dbl>, amount_removed <dbl>,
    ## #   dry_mass <dbl>, mw_100 <dbl>, mw_300 <dbl>, mw_500 <dbl>,
    ## #   mw_resid <dbl>, bulk_dens <dbl>, porosity <dbl>, wfps <dbl>,
    ## #   AMC <fct>, total_do <dbl>, theoretical_max <dbl>, umol_consumed <dbl>,
    ## #   tillage <chr>
…
