…
    tc_stats

    ## # A tibble: 51 x 14
    ##    sample field moisture incubation_day sample_type crop  weight area_n area_c
    ##    <chr>  <chr> <chr>             <dbl> <chr>       <chr>  <dbl>  <dbl>  <dbl>
    ##  1 3-8-F… Whea… FC                    7 Fe          Whea…   20.0   22.1   689.
    ##  2 3-8-7… Whea… 70                   28 Fe          Whea…   20.1   18.5   597.
    ##  3 3-8-7… Whea… 70                   14 Fe          Whea…   20.1   18.4   595.
    ##  4 3-8-7… Whea… 70                    7 Fe          Whea…   20.2   18.2   583.
    ##  5 3-8-F… Whea… FC                   14 Fe          Whea…   19.7   17.0   569.
    ##  6 3-8-F… Whea… FC                   28 Fe          Whea…   19.1   15.9   549.
    ##  7 8-6-F… Nati… <NA>                  0 Fe          Nati…   18.4   14.8   541.
    ##  8 8-6-7… Nati… 70                    7 Fe          Nati…   19.0   14.4   507.
    ##  9 8-6-7… Nati… 70                   14 Fe          Nati…   19.6   16.8   557.
    ## 10 8-6-7… Nati… 70                   28 Fe          Nati…   19.4   15.7   546.
    ## # … with 41 more rows, and 5 more variables: weight_n <dbl>, weight_c <dbl>,
    ## #   perc_n <dbl>, perc_c <dbl>, grass_crop <chr>
…
